<svg xmlns="http://www.w3.org/2000/svg" xmlns:xlink="http://www.w3.org/1999/xlink" width="6px" height="12px" viewBox="0 0 6 12">
    <path fill-rule="evenodd"
          d="M5.293,3.529 L4.000,3.529 L4.000,8.471 L5.293,8.471 C5.561,8.471 5.780,8.591 5.902,8.771 C6.000,8.972 5.976,9.172 5.829,9.353 L3.536,11.799 C3.390,11.940 3.219,12.000 3.000,12.000 C2.805,12.000 2.610,11.940 2.488,11.799 L0.195,9.353 C0.024,9.172 -0.000,8.972 0.122,8.771 C0.244,8.591 0.463,8.471 0.707,8.471 L2.000,8.471 L2.000,3.529 L0.707,3.529 C0.439,3.529 0.219,3.409 0.098,3.229 C-0.000,3.028 0.024,2.827 0.171,2.647 L2.463,0.201 C2.610,0.060 2.781,-0.000 3.000,-0.000 C3.195,-0.000 3.390,0.060 3.512,0.201 L5.805,2.647 C5.976,2.827 6.000,3.028 5.878,3.229 C5.756,3.409 5.536,3.529 5.293,3.529 Z"/>
</svg>