<svg
        xmlns="http://www.w3.org/2000/svg"
        xmlns:xlink="http://www.w3.org/1999/xlink"
        width="11px" height="9px" viewBox="0 0 11 9">
    <path fill-rule="evenodd" fill="rgb(230, 230, 230)"
          d="M6.475,1.247 C4.679,1.247 3.231,2.635 3.231,4.339 C3.231,6.043 4.679,7.431 6.475,7.431 C8.253,7.431 9.701,6.043 9.701,4.339 C9.701,2.635 8.253,1.247 6.475,1.247 L6.475,1.247 ZM2.589,6.587 L1.196,7.923 C0.591,8.502 1.508,9.381 2.113,8.801 L3.414,7.554 C4.220,8.256 5.302,8.678 6.475,8.678 C8.968,8.678 11.002,6.728 11.002,4.339 C11.002,1.950 8.968,-0.000 6.475,-0.000 C3.964,-0.000 1.948,1.950 1.948,4.339 C1.948,5.165 2.186,5.937 2.589,6.587 L2.589,6.587 Z"/>
</svg>