<svg xmlns="http://www.w3.org/2000/svg" xmlns:xlink="http://www.w3.org/1999/xlink" preserveAspectRatio="xMidYMid" width="11.313" height="13" viewBox="0 0 11.313 13">
  <defs>
    <style>
      .cls-1 {
        fill: #464646;
        fill-rule: evenodd;
      }
    </style>
  </defs>
  <path d="M0.245,4.360 L4.475,0.213 C4.867,-0.171 5.488,-0.012 5.488,0.544 L5.488,3.009 C8.768,3.459 11.301,6.401 11.301,9.952 L11.301,12.523 C11.301,13.119 10.427,13.159 10.389,12.563 C10.199,9.714 8.135,7.421 5.488,6.984 L5.488,9.488 C5.488,10.019 4.867,10.204 4.475,9.820 L0.245,5.686 C-0.109,5.328 -0.109,4.718 0.245,4.360 L0.245,4.360 ZM4.602,1.405 L0.878,5.010 L4.602,8.627 L4.602,5.977 C7.071,5.977 9.224,7.382 10.389,9.462 C10.148,6.335 7.641,3.883 4.602,3.883 L4.602,1.405 Z" class="cls-1"/>
</svg>
